<?xml version="1.0" encoding="UTF-8"?>

<env:Envelope xmlns:env="http://schemas.xmlsoap.org/soap/envelope/">
   <env:Header/>
   <env:Body>
      <ns2:invocarResponse xmlns:ns2="http://web.tecno-red.com.ar/AgendaService">
         <return message="OK" retCode="0" numeroTRD="20503461"/>
      </ns2:invocarResponse>
   </env:Body>
</env:Envelope>
