<LOGs><LOG MensajeMQ="1204" InicioConsulta="16/09/2010 14:42:30" TiempoIncurrido="0 Seg"><Request><DEFINICION>1204_DatosEmbarcaciones.xml</DEFINICION><USUARCOD>EX009005L</USUARCOD><RAMOPCOD>CEP1</RAMOPCOD><POLIZANN>00</POLIZANN><POLIZSEC>096434</POLIZSEC><CERTIPOL>6434</CERTIPOL><CERTIANN>0009</CERTIANN><CERTISEC>000001</CERTISEC><SUPLENUM>0</SUPLENUM></Request><Response><Estado resultado="true" mensaje=""/><CAMPOS><BUMATRIC>E-T</BUMATRIC><BUMARCOD>17</BUMARCOD><BUMARDES>SEA DOO</BUMARDES><BUMODCOD>7</BUMODCOD><BUMODDES>RXT 255 RS</BUMODDES><BUNOMBRE>ESCILA</BUNOMBRE><BUTIPCOD>4</BUTIPCOD><BUTIPDES>MOTO DE AGUA</BUTIPDES><FABRIANN>2009</FABRIANN><BUESLORA>331</BUESLORA><BUMANGA>122</BUMANGA><BUPUNTAL>118</BUPUNTAL><BUMOTTIP>2</BUMOTTIP><BUMOTTDE>Naftero</BUMOTTDE><BUMOTMAR>ROTAX</BUMOTMAR><BUMOTNRO>6900457</BUMOTNRO><BUMOTPOT>25500</BUMOTPOT><BUGEOCOD>1</BUGEOCOD><BUGEODES>RIO DE LA PLATA Y AFLUENTES  CABOS  ADENTRO  Y NO</BUGEODES><BUOPPAIS>00</BUOPPAIS><PAISSDES>ARGENTINA</PAISSDES><BUOPPROV>2</BUOPPROV><PROVIDES>BUENOS AIRES</PROVIDES><BUOPCODP>1625</BUOPCODP></CAMPOS>
		</Response><AreasMQ><AreaIN>12040001EX009005L     000000000    000000000  000000000  000000000CEP100096434643400090000010000</AreaIN><AreaOUT>12040001EX009005L OK  000000000    000000000  000000000  000000000CEP100096434643400090000010000   E-T    00017SEA DOO                       00007RXT 255 RS                    ESCILA                        0004MOTO DE AGUA                  20090000033100000122000001182Naftero             ROTAX                         6900457                       025500000001RIO DE LA PLATA Y AFLUENTES  CABOS  ADENTRO  Y NO 00ARGENTINA           02BUENOS AIRES        1625     ' ' ' ' ' ' ' ' ' ' ')  o</AreaOUT></AreasMQ></LOG><LOG MensajeMQ="1204" InicioConsulta="16/09/2010 16:03:12" TiempoIncurrido="1 Seg"><Request><DEFINICION>1204_DatosEmbarcaciones.xml</DEFINICION><USUARCOD>EX009005L</USUARCOD><RAMOPCOD>CEP1</RAMOPCOD><POLIZANN>00</POLIZANN><POLIZSEC>096426</POLIZSEC><CERTIPOL>6426</CERTIPOL><CERTIANN>0009</CERTIANN><CERTISEC>000001</CERTISEC><SUPLENUM>0</SUPLENUM></Request><Response><Estado resultado="true" mensaje=""/><CAMPOS><BUMATRIC>REY 014853</BUMATRIC><BUMARCOD>18</BUMARCOD><BUMARDES>SIN MARCA</BUMARDES><BUMODCOD>1</BUMODCOD><BUMODDES>SIN MODELO</BUMODDES><BUNOMBRE>JUANA II</BUNOMBRE><BUTIPCOD>9</BUTIPCOD><BUTIPDES>VELERO MOTOR DIESEL</BUTIPDES><FABRIANN>0</FABRIANN><BUESLORA>1075</BUESLORA><BUMANGA>345</BUMANGA><BUPUNTAL>190</BUPUNTAL><BUMOTTIP>1</BUMOTTIP><BUMOTTDE>Gasolero</BUMOTTDE><BUMOTMAR>PERKINS 4-203</BUMOTMAR><BUMOTNRO>543258</BUMOTNRO><BUMOTPOT>5800</BUMOTPOT><BUGEOCOD>1</BUGEOCOD><BUGEODES>RIO DE LA PLATA Y AFLUENTES  CABOS  ADENTRO  Y NO</BUGEODES><BUOPPAIS>00</BUOPPAIS><PAISSDES>ARGENTINA</PAISSDES><BUOPPROV>2</BUOPPROV><PROVIDES>BUENOS AIRES</PROVIDES><BUOPCODP>1636</BUOPCODP></CAMPOS>
		</Response><AreasMQ><AreaIN>12040001EX009005L     000000000    000000000  000000000  000000000CEP100096426642600090000010000</AreaIN><AreaOUT>12040001EX009005L OK  000000000    000000000  000000000  000000000CEP100096426642600090000010000REY 01485300018SIN MARCA                     00001SIN MODELO                    JUANA II                      0009VELERO MOTOR DIESEL           00000000107500000345000001901Gasolero            PERKINS 4-203                 543258                        005800000001RIO DE LA PLATA Y AFLUENTES  CABOS  ADENTRO  Y NO 00ARGENTINA           02BUENOS AIRES        1636     ' ' ' ' ' ' ' ' ' ' ')  o</AreaOUT></AreasMQ></LOG><LOG MensajeMQ="1204" InicioConsulta="20/09/2010 15:44:44" TiempoIncurrido="0 Seg"><Request><DEFINICION>1204_DatosEmbarcaciones.xml</DEFINICION><USUARCOD>EX009005L</USUARCOD><RAMOPCOD>CEP1</RAMOPCOD><POLIZANN>00</POLIZANN><POLIZSEC>096426</POLIZSEC><CERTIPOL>6426</CERTIPOL><CERTIANN>0009</CERTIANN><CERTISEC>000001</CERTISEC><SUPLENUM>0</SUPLENUM></Request><Response><Estado resultado="true" mensaje=""/><CAMPOS><BUMATRIC>REY 014853</BUMATRIC><BUMARCOD>18</BUMARCOD><BUMARDES>SIN MARCA</BUMARDES><BUMODCOD>1</BUMODCOD><BUMODDES>SIN MODELO</BUMODDES><BUNOMBRE>JUANA II</BUNOMBRE><BUTIPCOD>9</BUTIPCOD><BUTIPDES>VELERO MOTOR DIESEL</BUTIPDES><FABRIANN>0</FABRIANN><BUESLORA>1075</BUESLORA><BUMANGA>345</BUMANGA><BUPUNTAL>190</BUPUNTAL><BUMOTTIP>1</BUMOTTIP><BUMOTTDE>Gasolero</BUMOTTDE><BUMOTMAR>PERKINS 4-203</BUMOTMAR><BUMOTNRO>543258</BUMOTNRO><BUMOTPOT>5800</BUMOTPOT><BUGEOCOD>1</BUGEOCOD><BUGEODES>RIO DE LA PLATA Y AFLUENTES  CABOS  ADENTRO  Y NO</BUGEODES><BUOPPAIS>00</BUOPPAIS><PAISSDES>ARGENTINA</PAISSDES><BUOPPROV>2</BUOPPROV><PROVIDES>BUENOS AIRES</PROVIDES><BUOPCODP>1636</BUOPCODP></CAMPOS>
		</Response><AreasMQ><AreaIN>12040001EX009005L     000000000    000000000  000000000  000000000CEP100096426642600090000010000</AreaIN><AreaOUT>12040001EX009005L OK  000000000    000000000  000000000  000000000CEP100096426642600090000010000REY 01485300018SIN MARCA                     00001SIN MODELO                    JUANA II                      0009VELERO MOTOR DIESEL           00000000107500000345000001901Gasolero            PERKINS 4-203                 543258                        005800000001RIO DE LA PLATA Y AFLUENTES  CABOS  ADENTRO  Y NO 00ARGENTINA           02BUENOS AIRES        1636     ' ' ' ' ' ' ' ' ' ' ')  o</AreaOUT></AreasMQ></LOG><LOG MensajeMQ="1204" InicioConsulta="20/09/2010 16:51:39" TiempoIncurrido="0 Seg"><Request><DEFINICION>1204_DatosEmbarcaciones.xml</DEFINICION><USUARCOD>EX009005L</USUARCOD><RAMOPCOD>CEP1</RAMOPCOD><POLIZANN>00</POLIZANN><POLIZSEC>096426</POLIZSEC><CERTIPOL>6426</CERTIPOL><CERTIANN>0009</CERTIANN><CERTISEC>000001</CERTISEC><SUPLENUM>0</SUPLENUM></Request><Response><Estado resultado="true" mensaje=""/><CAMPOS><BUMATRIC>REY 014853</BUMATRIC><BUMARCOD>18</BUMARCOD><BUMARDES>SIN MARCA</BUMARDES><BUMODCOD>1</BUMODCOD><BUMODDES>SIN MODELO</BUMODDES><BUNOMBRE>JUANA II</BUNOMBRE><BUTIPCOD>9</BUTIPCOD><BUTIPDES>VELERO MOTOR DIESEL</BUTIPDES><FABRIANN>0</FABRIANN><BUESLORA>1075</BUESLORA><BUMANGA>345</BUMANGA><BUPUNTAL>190</BUPUNTAL><BUMOTTIP>1</BUMOTTIP><BUMOTTDE>Gasolero</BUMOTTDE><BUMOTMAR>PERKINS 4-203</BUMOTMAR><BUMOTNRO>543258</BUMOTNRO><BUMOTPOT>5800</BUMOTPOT><BUGEOCOD>1</BUGEOCOD><BUGEODES>RIO DE LA PLATA Y AFLUENTES  CABOS  ADENTRO  Y NO</BUGEODES><BUOPPAIS>00</BUOPPAIS><PAISSDES>ARGENTINA</PAISSDES><BUOPPROV>2</BUOPPROV><PROVIDES>BUENOS AIRES</PROVIDES><BUOPCODP>1636</BUOPCODP></CAMPOS>
		</Response><AreasMQ><AreaIN>12040001EX009005L     000000000    000000000  000000000  000000000CEP100096426642600090000010000</AreaIN><AreaOUT>12040001EX009005L OK  000000000    000000000  000000000  000000000CEP100096426642600090000010000REY 01485300018SIN MARCA                     00001SIN MODELO                    JUANA II                      0009VELERO MOTOR DIESEL           00000000107500000345000001901Gasolero            PERKINS 4-203                 543258                        005800000001RIO DE LA PLATA Y AFLUENTES  CABOS  ADENTRO  Y NO 00ARGENTINA           02BUENOS AIRES        1636     ' ' ' ' ' ' ' ' ' ' ')  o</AreaOUT></AreasMQ></LOG><LOG MensajeMQ="1204" InicioConsulta="20/09/2010 17:02:43" TiempoIncurrido="0 Seg"><Request><DEFINICION>1204_DatosEmbarcaciones.xml</DEFINICION><USUARCOD>EX009005L</USUARCOD><RAMOPCOD>CEP1</RAMOPCOD><POLIZANN>00</POLIZANN><POLIZSEC>096426</POLIZSEC><CERTIPOL>6426</CERTIPOL><CERTIANN>0009</CERTIANN><CERTISEC>000001</CERTISEC><SUPLENUM>0</SUPLENUM></Request><Response><Estado resultado="true" mensaje=""/><CAMPOS><BUMATRIC>REY 014853</BUMATRIC><BUMARCOD>18</BUMARCOD><BUMARDES>SIN MARCA</BUMARDES><BUMODCOD>1</BUMODCOD><BUMODDES>SIN MODELO</BUMODDES><BUNOMBRE>JUANA II</BUNOMBRE><BUTIPCOD>9</BUTIPCOD><BUTIPDES>VELERO MOTOR DIESEL</BUTIPDES><FABRIANN>0</FABRIANN><BUESLORA>1075</BUESLORA><BUMANGA>345</BUMANGA><BUPUNTAL>190</BUPUNTAL><BUMOTTIP>1</BUMOTTIP><BUMOTTDE>Gasolero</BUMOTTDE><BUMOTMAR>PERKINS 4-203</BUMOTMAR><BUMOTNRO>543258</BUMOTNRO><BUMOTPOT>5800</BUMOTPOT><BUGEOCOD>1</BUGEOCOD><BUGEODES>RIO DE LA PLATA Y AFLUENTES  CABOS  ADENTRO  Y NO</BUGEODES><BUOPPAIS>00</BUOPPAIS><PAISSDES>ARGENTINA</PAISSDES><BUOPPROV>2</BUOPPROV><PROVIDES>BUENOS AIRES</PROVIDES><BUOPCODP>1636</BUOPCODP></CAMPOS>
		</Response><AreasMQ><AreaIN>12040001EX009005L     000000000    000000000  000000000  000000000CEP100096426642600090000010000</AreaIN><AreaOUT>12040001EX009005L OK  000000000    000000000  000000000  000000000CEP100096426642600090000010000REY 01485300018SIN MARCA                     00001SIN MODELO                    JUANA II                      0009VELERO MOTOR DIESEL           00000000107500000345000001901Gasolero            PERKINS 4-203                 543258                        005800000001RIO DE LA PLATA Y AFLUENTES  CABOS  ADENTRO  Y NO 00ARGENTINA           02BUENOS AIRES        1636     ' ' ' ' ' ' ' ' ' ' ')  o</AreaOUT></AreasMQ></LOG></LOGs>
