<LOGs>
	<LOG MensajeMQ="2420" InicioConsulta="17/01/2011 10:40:37" TiempoIncurrido="60 Seg"><Request><DEFINICION>2420_RenovacionCotizacionConTasaVig.xml</DEFINICION><USUARCOD>EX009001L</USUARCOD><RAMOPCOD>AUA1</RAMOPCOD><POLIZANN>00</POLIZANN><POLIZSEC>732858</POLIZSEC><CERTIPOL>2858</CERTIPOL><CERTIANN>0010</CERTIANN><CERTISEC>000001</CERTISEC></Request><Response><Estado resultado="false" mensaje="El servicio de consulta no se encuentra disponible"/>Codigo Error:3</Response><AreasMQ><AreaIN>24200001EX009001L     000000000    000000000  000000000  000000000AUA10073285828580010000001</AreaIN><AreaOUT>Error leyendo datos de mq:DQMVENDIRAR03:DARLBA..VENDIR.INQRY_RESP TIMEOUT.-[012002 022033]</AreaOUT></AreasMQ></LOG><LOG MensajeMQ="2420" InicioConsulta="17/01/2011 10:43:42" TiempoIncurrido="60 Seg"><Request>
			<DEFINICION>2420_RenovacionCotizacionConTasaVig.xml</DEFINICION>
			<USUARCOD>EX009001L</USUARCOD>
			<RAMOPCOD>AUA1</RAMOPCOD>
			<POLIZANN>00</POLIZANN>
			<POLIZSEC>732858</POLIZSEC>
			<CERTIPOL>2858</CERTIPOL>
			<CERTIANN>0010</CERTIANN>
			<CERTISEC>000001</CERTISEC>
		</Request><Response><Estado resultado="false" mensaje="El servicio de consulta no se encuentra disponible"/>Codigo Error:3</Response><AreasMQ><AreaIN>24200001EX009001L     000000000    000000000  000000000  000000000AUA10073285828580010000001</AreaIN><AreaOUT>Error leyendo datos de mq:DQMVENDIRAR03:DARLBA..VENDIR.INQRY_RESP TIMEOUT.-[012002 022033]</AreaOUT></AreasMQ></LOG><LOG MensajeMQ="2420" InicioConsulta="17/01/2011 10:44:22" TiempoIncurrido="61 Seg"><Request><DEFINICION>2420_RenovacionCotizacionConTasaVig.xml</DEFINICION><USUARCOD>EX009001L</USUARCOD><RAMOPCOD>AUA1</RAMOPCOD><POLIZANN>00</POLIZANN><POLIZSEC>732858</POLIZSEC><CERTIPOL>2858</CERTIPOL><CERTIANN>0010</CERTIANN><CERTISEC>000001</CERTISEC></Request><Response><Estado resultado="false" mensaje="El servicio de consulta no se encuentra disponible"/>Codigo Error:3</Response><AreasMQ><AreaIN>24200001EX009001L     000000000    000000000  000000000  000000000AUA10073285828580010000001</AreaIN><AreaOUT>Error leyendo datos de mq:DQMVENDIRAR03:DARLBA..VENDIR.INQRY_RESP TIMEOUT.-[012002 022033]</AreaOUT></AreasMQ></LOG><LOG MensajeMQ="2420" InicioConsulta="17/01/2011 10:52:28" TiempoIncurrido="61 Seg"><Request><DEFINICION>2420_RenovacionCotizacionConTasaVig.xml</DEFINICION><USUARCOD>EX009001L</USUARCOD><RAMOPCOD>AUA1</RAMOPCOD><POLIZANN>00</POLIZANN><POLIZSEC>747764</POLIZSEC><CERTIPOL>7764</CERTIPOL><CERTIANN>0010</CERTIANN><CERTISEC>000001</CERTISEC></Request><Response><Estado resultado="false" mensaje="El servicio de consulta no se encuentra disponible"/>Codigo Error:3</Response><AreasMQ><AreaIN>24200001EX009001L     000000000    000000000  000000000  000000000AUA10074776477640010000001</AreaIN><AreaOUT>Error leyendo datos de mq:DQMVENDIRAR03:DARLBA..VENDIR.INQRY_RESP TIMEOUT.-[012002 022033]</AreaOUT></AreasMQ></LOG><LOG MensajeMQ="2420" InicioConsulta="17/01/2011 10:57:44" TiempoIncurrido="60 Seg"><Request><DEFINICION>2420_RenovacionCotizacionConTasaVig.xml</DEFINICION><USUARCOD>EX009001L</USUARCOD><RAMOPCOD>AUA1</RAMOPCOD><POLIZANN>00</POLIZANN><POLIZSEC>732858</POLIZSEC><CERTIPOL>2858</CERTIPOL><CERTIANN>0010</CERTIANN><CERTISEC>000001</CERTISEC></Request><Response><Estado resultado="false" mensaje="El servicio de consulta no se encuentra disponible"/>Codigo Error:3</Response><AreasMQ><AreaIN>24200001EX009001L     000000000    000000000  000000000  000000000AUA10073285828580010000001</AreaIN><AreaOUT>Error leyendo datos de mq:DQMVENDIRAR03:DARLBA..VENDIR.INQRY_RESP TIMEOUT.-[012002 022033]</AreaOUT></AreasMQ></LOG><LOG MensajeMQ="2420" InicioConsulta="17/01/2011 11:09:39" TiempoIncurrido="60 Seg"><Request><DEFINICION>2420_RenovacionCotizacionConTasaVig.xml</DEFINICION><USUARCOD>EX009001L</USUARCOD><RAMOPCOD>AUA1</RAMOPCOD><POLIZANN>00</POLIZANN><POLIZSEC>733045</POLIZSEC><CERTIPOL>3045</CERTIPOL><CERTIANN>0010</CERTIANN><CERTISEC>000001</CERTISEC></Request><Response><Estado resultado="false" mensaje="El servicio de consulta no se encuentra disponible"/>Codigo Error:3</Response><AreasMQ><AreaIN>24200001EX009001L     000000000    000000000  000000000  000000000AUA10073304530450010000001</AreaIN><AreaOUT>Error leyendo datos de mq:DQMVENDIRAR03:DARLBA..VENDIR.INQRY_RESP TIMEOUT.-[012002 022033]</AreaOUT></AreasMQ></LOG><LOG MensajeMQ="2420" InicioConsulta="17/01/2011 11:10:39" TiempoIncurrido="61 Seg"><Request><DEFINICION>2420_RenovacionCotizacionConTasaVig.xml</DEFINICION><USUARCOD>EX009001L</USUARCOD><RAMOPCOD>AUA1</RAMOPCOD><POLIZANN>00</POLIZANN><POLIZSEC>732858</POLIZSEC><CERTIPOL>2858</CERTIPOL><CERTIANN>0010</CERTIANN><CERTISEC>000001</CERTISEC></Request><Response><Estado resultado="false" mensaje="El servicio de consulta no se encuentra disponible"/>Codigo Error:3</Response><AreasMQ><AreaIN>24200001EX009001L     000000000    000000000  000000000  000000000AUA10073285828580010000001</AreaIN><AreaOUT>Error leyendo datos de mq:DQMVENDIRAR03:DARLBA..VENDIR.INQRY_RESP TIMEOUT.-[012002 022033]</AreaOUT></AreasMQ></LOG><LOG MensajeMQ="2420" InicioConsulta="17/01/2011 11:13:08" TiempoIncurrido="61 Seg"><Request><DEFINICION>2420_RenovacionCotizacionConTasaVig.xml</DEFINICION><USUARCOD>EX009001L</USUARCOD><RAMOPCOD>AUA1</RAMOPCOD><POLIZANN>00</POLIZANN><POLIZSEC>732858</POLIZSEC><CERTIPOL>2858</CERTIPOL><CERTIANN>0010</CERTIANN><CERTISEC>000001</CERTISEC></Request><Response><Estado resultado="false" mensaje="El servicio de consulta no se encuentra disponible"/>Codigo Error:3</Response><AreasMQ><AreaIN>24200001EX009001L     000000000    000000000  000000000  000000000AUA10073285828580010000001</AreaIN><AreaOUT>Error leyendo datos de mq:DQMVENDIRAR03:DARLBA..VENDIR.INQRY_RESP TIMEOUT.-[012002 022033]</AreaOUT></AreasMQ></LOG><LOG MensajeMQ="2420" InicioConsulta="17/01/2011 11:15:52" TiempoIncurrido="60 Seg"><Request><DEFINICION>2420_RenovacionCotizacionConTasaVig.xml</DEFINICION><USUARCOD>EX009001L</USUARCOD><RAMOPCOD>AUA1</RAMOPCOD><POLIZANN>00</POLIZANN><POLIZSEC>732858</POLIZSEC><CERTIPOL>2858</CERTIPOL><CERTIANN>0010</CERTIANN><CERTISEC>000001</CERTISEC></Request><Response><Estado resultado="false" mensaje="El servicio de consulta no se encuentra disponible"/>Codigo Error:3</Response><AreasMQ><AreaIN>24200001EX009001L     000000000    000000000  000000000  000000000AUA10073285828580010000001</AreaIN><AreaOUT>Error leyendo datos de mq:DQMVENDIRAR03:DARLBA..VENDIR.INQRY_RESP TIMEOUT.-[012002 022033]</AreaOUT></AreasMQ></LOG><LOG MensajeMQ="2420" InicioConsulta="17/01/2011 11:18:11" TiempoIncurrido="61 Seg"><Request><DEFINICION>2420_RenovacionCotizacionConTasaVig.xml</DEFINICION><USUARCOD>EX009001L</USUARCOD><RAMOPCOD>AUA1</RAMOPCOD><POLIZANN>00</POLIZANN><POLIZSEC>733045</POLIZSEC><CERTIPOL>3045</CERTIPOL><CERTIANN>0010</CERTIANN><CERTISEC>000001</CERTISEC></Request><Response><Estado resultado="false" mensaje="El servicio de consulta no se encuentra disponible"/>Codigo Error:3</Response><AreasMQ><AreaIN>24200001EX009001L     000000000    000000000  000000000  000000000AUA10073304530450010000001</AreaIN><AreaOUT>Error leyendo datos de mq:DQMVENDIRAR03:DARLBA..VENDIR.INQRY_RESP TIMEOUT.-[012002 022033]</AreaOUT></AreasMQ></LOG><LOG MensajeMQ="2420" InicioConsulta="17/01/2011 11:19:35" TiempoIncurrido="61 Seg"><Request><DEFINICION>2420_RenovacionCotizacionConTasaVig.xml</DEFINICION><USUARCOD>EX009001L</USUARCOD><RAMOPCOD>AUA1</RAMOPCOD><POLIZANN>00</POLIZANN><POLIZSEC>732858</POLIZSEC><CERTIPOL>2858</CERTIPOL><CERTIANN>0010</CERTIANN><CERTISEC>000001</CERTISEC></Request><Response><Estado resultado="false" mensaje="El servicio de consulta no se encuentra disponible"/>Codigo Error:3</Response><AreasMQ><AreaIN>24200001EX009001L     000000000    000000000  000000000  000000000AUA10073285828580010000001</AreaIN><AreaOUT>Error leyendo datos de mq:DQMVENDIRAR03:DARLBA..VENDIR.INQRY_RESP TIMEOUT.-[012002 022033]</AreaOUT></AreasMQ></LOG><LOG MensajeMQ="2420" InicioConsulta="17/01/2011 11:21:45" TiempoIncurrido="61 Seg"><Request><DEFINICION>2420_RenovacionCotizacionConTasaVig.xml</DEFINICION><USUARCOD>EX009001L</USUARCOD><RAMOPCOD>AUA1</RAMOPCOD><POLIZANN>00</POLIZANN><POLIZSEC>732858</POLIZSEC><CERTIPOL>2858</CERTIPOL><CERTIANN>0010</CERTIANN><CERTISEC>000001</CERTISEC></Request><Response><Estado resultado="false" mensaje="El servicio de consulta no se encuentra disponible"/>Codigo Error:3</Response><AreasMQ><AreaIN>24200001EX009001L     000000000    000000000  000000000  000000000AUA10073285828580010000001</AreaIN><AreaOUT>Error leyendo datos de mq:DQMVENDIRAR03:DARLBA..VENDIR.INQRY_RESP TIMEOUT.-[012002 022033]</AreaOUT></AreasMQ></LOG><LOG MensajeMQ="2420" InicioConsulta="17/01/2011 11:23:48" TiempoIncurrido="61 Seg"><Request><DEFINICION>2420_RenovacionCotizacionConTasaVig.xml</DEFINICION><USUARCOD>EX009001L</USUARCOD><RAMOPCOD>AUA1</RAMOPCOD><POLIZANN>00</POLIZANN><POLIZSEC>732858</POLIZSEC><CERTIPOL>2858</CERTIPOL><CERTIANN>0010</CERTIANN><CERTISEC>000001</CERTISEC></Request><Response><Estado resultado="false" mensaje="El servicio de consulta no se encuentra disponible"/>Codigo Error:3</Response><AreasMQ><AreaIN>24200001EX009001L     000000000    000000000  000000000  000000000AUA10073285828580010000001</AreaIN><AreaOUT>Error leyendo datos de mq:DQMVENDIRAR03:DARLBA..VENDIR.INQRY_RESP TIMEOUT.-[012002 022033]</AreaOUT></AreasMQ></LOG><LOG MensajeMQ="2420" InicioConsulta="17/01/2011 11:25:20" TiempoIncurrido="61 Seg"><Request><DEFINICION>2420_RenovacionCotizacionConTasaVig.xml</DEFINICION><USUARCOD>EX009001L</USUARCOD><RAMOPCOD>AUA1</RAMOPCOD><POLIZANN>00</POLIZANN><POLIZSEC>733045</POLIZSEC><CERTIPOL>3045</CERTIPOL><CERTIANN>0010</CERTIANN><CERTISEC>000001</CERTISEC></Request><Response><Estado resultado="false" mensaje="El servicio de consulta no se encuentra disponible"/>Codigo Error:3</Response><AreasMQ><AreaIN>24200001EX009001L     000000000    000000000  000000000  000000000AUA10073304530450010000001</AreaIN><AreaOUT>Error leyendo datos de mq:DQMVENDIRAR03:DARLBA..VENDIR.INQRY_RESP TIMEOUT.-[012002 022033]</AreaOUT></AreasMQ></LOG><LOG MensajeMQ="2420" InicioConsulta="01/02/2011 12:01:46" TiempoIncurrido="61 Seg"><Request><DEFINICION>2420_RenovacionCotizacionConTasaVig.xml</DEFINICION><USUARCOD>EX009001L</USUARCOD><RAMOPCOD>ICO1</RAMOPCOD><POLIZANN>00</POLIZANN><POLIZSEC>139726</POLIZSEC><CERTIPOL>9726</CERTIPOL><CERTIANN>0010</CERTIANN><CERTISEC>000001</CERTISEC></Request><Response><Estado resultado="false" mensaje="El servicio de consulta no se encuentra disponible"/>Codigo Error:3</Response><AreasMQ><AreaIN>24200001EX009001L     000000000    000000000  000000000  000000000ICO10013972697260010000001</AreaIN><AreaOUT>Error leyendo datos de mq:DQMVENDIRAR03:DARLBA..VENDIR.INQRY_RESP TIMEOUT.-[012002 022033]</AreaOUT></AreasMQ></LOG><LOG MensajeMQ="2420" InicioConsulta="02/02/2011 14:35:36" TiempoIncurrido="61 Seg"><Request><DEFINICION>2420_RenovacionCotizacionConTasaVig.xml</DEFINICION><USUARCOD>EX009002L</USUARCOD><RAMOPCOD>ICO1</RAMOPCOD><POLIZANN>00</POLIZANN><POLIZSEC>139218</POLIZSEC><CERTIPOL>9218</CERTIPOL><CERTIANN>0010</CERTIANN><CERTISEC>000002</CERTISEC></Request><Response><Estado resultado="false" mensaje="El servicio de consulta no se encuentra disponible"/>Codigo Error:3</Response><AreasMQ><AreaIN>24200001EX009002L     000000000    000000000  000000000  000000000ICO10013921892180010000002</AreaIN><AreaOUT>Error leyendo datos de mq:DQMVENDIRAR03:DARLBA..VENDIR.INQRY_RESP TIMEOUT.-[012002 022033]</AreaOUT></AreasMQ></LOG><LOG MensajeMQ="2420" InicioConsulta="02/02/2011 14:40:29" TiempoIncurrido="60 Seg"><Request><DEFINICION>2420_RenovacionCotizacionConTasaVig.xml</DEFINICION><USUARCOD>EX009002L</USUARCOD><RAMOPCOD>ICO1</RAMOPCOD><POLIZANN>00</POLIZANN><POLIZSEC>139218</POLIZSEC><CERTIPOL>9218</CERTIPOL><CERTIANN>0010</CERTIANN><CERTISEC>000002</CERTISEC></Request><Response><Estado resultado="false" mensaje="El servicio de consulta no se encuentra disponible"/>Codigo Error:3</Response><AreasMQ><AreaIN>24200001EX009002L     000000000    000000000  000000000  000000000ICO10013921892180010000002</AreaIN><AreaOUT>Error leyendo datos de mq:DQMVENDIRAR03:DARLBA..VENDIR.INQRY_RESP TIMEOUT.-[012002 022033]</AreaOUT></AreasMQ></LOG><LOG MensajeMQ="2420" InicioConsulta="02/02/2011 14:53:59" TiempoIncurrido="60 Seg"><Request><DEFINICION>2420_RenovacionCotizacionConTasaVig.xml</DEFINICION><USUARCOD>EX009002L</USUARCOD><RAMOPCOD>ICO1</RAMOPCOD><POLIZANN>00</POLIZANN><POLIZSEC>136571</POLIZSEC><CERTIPOL>6571</CERTIPOL><CERTIANN>0009</CERTIANN><CERTISEC>000001</CERTISEC></Request><Response><Estado resultado="false" mensaje="El servicio de consulta no se encuentra disponible"/>Codigo Error:3</Response><AreasMQ><AreaIN>24200001EX009002L     000000000    000000000  000000000  000000000ICO10013657165710009000001</AreaIN><AreaOUT>Error leyendo datos de mq:DQMVENDIRAR03:DARLBA..VENDIR.INQRY_RESP TIMEOUT.-[012002 022033]</AreaOUT></AreasMQ></LOG><LOG MensajeMQ="2420" InicioConsulta="01/04/2011 12:51:06" TiempoIncurrido="60 Seg"><Request>
			<DEFINICION>2420_RenovacionCotizacionConTasaVig.xml</DEFINICION>
			<USUARCOD>EX009002L</USUARCOD>
			<RAMOPCOD>ICO1</RAMOPCOD>
			<POLIZANN>00</POLIZANN>
			<POLIZSEC>139218</POLIZSEC>
			<CERTIPOL>9218</CERTIPOL>
			<CERTIANN>0010</CERTIANN>
			<CERTISEC>000002</CERTISEC>
		</Request><Response><Estado resultado="false" mensaje="El servicio de consulta no se encuentra disponible"/>Codigo Error:3</Response><AreasMQ><AreaIN>24200001EX009002L     000000000    000000000  000000000  000000000ICO10013921892180010000002</AreaIN><AreaOUT>Error leyendo datos de mq:DQMVENDIRAR03:DARLBA..VENDIR.INQRY_RESP TIMEOUT.-[012002 022033]</AreaOUT></AreasMQ></LOG><LOG MensajeMQ="2420" InicioConsulta="01/04/2011 12:55:09" TiempoIncurrido="61 Seg"><Request><DEFINICION>2420_RenovacionCotizacionConTasaVig.xml</DEFINICION><USUARCOD/><RAMOPCOD>CON1</RAMOPCOD><POLIZANN>99</POLIZANN>
			<POLIZSEC>508322</POLIZSEC><CERTIPOL>9000</CERTIPOL><CERTIANN>2005</CERTIANN><CERTISEC>009419</CERTISEC></Request><Response><Estado resultado="false" mensaje="El servicio de consulta no se encuentra disponible"/>Codigo Error:3</Response><AreasMQ><AreaIN>24200001              000000000    000000000  000000000  000000000CON19950832290002005009419</AreaIN><AreaOUT>Error leyendo datos de mq:DQMVENDIRAR03:DARLBA..VENDIR.INQRY_RESP TIMEOUT.-[012002 022033]</AreaOUT></AreasMQ></LOG></LOGs>
