<Request>
  <USUARCOD>GLOBALLOG</USUARCOD>
  <POLIZANN>00</POLIZANN>
  <POLIZSEC>000001</POLIZSEC>
  <CERTIPOL>2019</CERTIPOL>
  <CERTIANN>0000</CERTIANN>
  <CERTISEC>000881</CERTISEC>
  <EFECTANN2>2013</EFECTANN2>
  <EFECTMES>11</EFECTMES>
  <EFECTDIA>30</EFECTDIA>
  <FESOLANN>2013</FESOLANN>
  <FESOLMES>11</FESOLMES>
  <FESOLDIA>29</FESOLDIA>
  <PRECIO_MENSUAL>813.00</PRECIO_MENSUAL>
  <CAMP_CODIGO>1459</CAMP_CODIGO>
  <SN_EPOLIZA>N</SN_EPOLIZA>
  <AGECOD>7907</AGECOD>
  <AGECLA>PR</AGECLA>
  <CLICLIENAP1>Hidalgo</CLICLIENAP1>
  <AISCLICLIENNOM>sebastian</AISCLICLIENNOM>
  <CLIENSEC>1</CLIENSEC>
  <TIPODOCU>1</TIPODOCU>
  <NUMEDOCU>29004933</NUMEDOCU>
  <NACIMANN>1980</NACIMANN>
  <NACIMMES>04</NACIMMES>
  <NACIMDIA>04</NACIMDIA>
  <SEXO>M</SEXO>
  <ESTCIV>S</ESTCIV>
  <CLIDOMICCAL>PAR</CLIDOMICCAL>
  <CLIDOMICDOM>Laprida</CLIDOMICDOM>
  <CLIDOMICDNU>746</CLIDOMICDNU>
  <CLIDOMICPIS/>
  <CLIDOMICPTA/>
  <CLIDOMICPOB>AVELLANEDA</CLIDOMICPOB>
  <CLIDOMICCPO>1870</CLIDOMICCPO>
  <CODPROV>2</CODPROV>
  <CLIDOMPAISSCOD>00</CLIDOMPAISSCOD>
  <CLIDOMICTLF>01142017911</CLIDOMICTLF>
  <MEDIOSCONTACTO>
    <MEDIO>
      <MEDCOSEC>001</MEDCOSEC>
      <MEDCOCOD>EMA</MEDCOCOD>
      <MEDCODAT>seba81281@gmail.com</MEDCODAT>
      <MEDCOSYS>EMA</MEDCOSYS>
    </MEDIO>
    <MEDIO>
      <MEDCOSEC>002</MEDCOSEC>
      <MEDCOCOD>TEL</MEDCOCOD>
      <MEDCODAT>01142017911</MEDCODAT>
      <MEDCOSYS>TEL</MEDCOSYS>
    </MEDIO>
  </MEDIOSCONTACTO>
  <BANCOCOD>9000</BANCOCOD>
  <SUCURSAL_CODIGO/>
  <COBROTIP>DB</COBROTIP>
  <CUENNUME>0720360088000034</CUENNUME>
  <VENCIANN>3590</VENCIANN>
  <VENCIMES>17</VENCIMES>
  <CLIENIVA>3</CLIENIVA>
  <PROFECOD>000021</PROFECOD>
  <AUMARCOD>00009</AUMARCOD>
  <AUMODCOD>00067</AUMODCOD>
  <AUSUBCOD>00008</AUSUBCOD>
  <AUADICOD>00805</AUADICOD>
  <AUMODORI>N</AUMODORI>
  <SIFMVEHI_DES>CHEVROLET CORSA 2 CD 1.8 4P ABS Nacional</SIFMVEHI_DES>
  <AUTIPCOD>0001</AUTIPCOD>
  <FABRICAN>2011</FABRICAN>
  <MOTORNUM>JPXTNUL999</MOTORNUM>
  <CHASINUM>JPXYHVTNULL123999</CHASINUM>
  <PATENNUM>NXY999</PATENNUM>
  <VEHCLRCOD>4</VEHCLRCOD>
  <AUCATCOD>13</AUCATCOD>
  <AUUSOCOD>01</AUUSOCOD>
  <AUKLMNUM>0015000</AUKLMNUM>
  <AUPAISCOD>00</AUPAISCOD>
  <AUPROVICOD>2</AUPROVICOD>
  <AUDOMCPACODPO>1870</AUDOMCPACODPO>
  <GUGARAGE>N</GUGARAGE>
  <ESCERO>N</ESCERO>
  <CONDUCTORES/>
  <ACCESORIOS/>
  <RASTREO>00</RASTREO>
  <PLANPOLICOD>14</PLANPOLICOD>
  <FRANQCOD>99</FRANQCOD>
  <COBERTURAS>
    <COBERTURA>
      <COBERCOD>905</COBERCOD>
      <COBERORD>6</COBERORD>
      <CAPITASG>69000.00</CAPITASG>
      <CAPITIMP>69000.00</CAPITIMP>
    </COBERTURA>
    <COBERTURA>
      <COBERCOD>041</COBERCOD>
      <COBERORD>7</COBERORD>
      <CAPITASG>69000.00</CAPITASG>
      <CAPITIMP>69000.00</CAPITIMP>
    </COBERTURA>
    <COBERTURA>
      <COBERCOD>039</COBERCOD>
      <COBERORD>8</COBERORD>
      <CAPITASG>69000.00</CAPITASG>
      <CAPITIMP>69000.00</CAPITIMP>
    </COBERTURA>
    <COBERTURA>
      <COBERCOD>040</COBERCOD>
      <COBERORD>9</COBERORD>
      <CAPITASG>69000.00</CAPITASG>
      <CAPITIMP>69000.00</CAPITIMP>
    </COBERTURA>
    <COBERTURA>
      <COBERCOD>013</COBERCOD>
      <COBERORD>12</COBERORD>
      <CAPITASG>69000.00</CAPITASG>
      <CAPITIMP>69000.00</CAPITIMP>
    </COBERTURA>
    <COBERTURA>
      <COBERCOD>028</COBERCOD>
      <COBERORD>13</COBERORD>
      <CAPITASG>69000.00</CAPITASG>
      <CAPITIMP>69000.00</CAPITIMP>
    </COBERTURA>
    <COBERTURA>
      <COBERCOD>009</COBERCOD>
      <COBERORD>14</COBERORD>
      <CAPITASG>69000.00</CAPITASG>
      <CAPITIMP>69000.00</CAPITIMP>
    </COBERTURA>
    <COBERTURA>
      <COBERCOD>810</COBERCOD>
      <COBERORD>17</COBERORD>
      <CAPITASG>69000.00</CAPITASG>
      <CAPITIMP>69000.00</CAPITIMP>
    </COBERTURA>
    <COBERTURA>
      <COBERCOD>031</COBERCOD>
      <COBERORD>2</COBERORD>
      <CAPITASG>.00</CAPITASG>
      <CAPITIMP>.00</CAPITIMP>
    </COBERTURA>
    <COBERTURA>
      <COBERCOD>032</COBERCOD>
      <COBERORD>3</COBERORD>
      <CAPITASG>.00</CAPITASG>
      <CAPITIMP>.00</CAPITIMP>
    </COBERTURA>
    <COBERTURA>
      <COBERCOD>033</COBERCOD>
      <COBERORD>4</COBERORD>
      <CAPITASG>.00</CAPITASG>
      <CAPITIMP>.00</CAPITIMP>
    </COBERTURA>
    <COBERTURA>
      <COBERCOD>002</COBERCOD>
      <COBERORD>5</COBERORD>
      <CAPITASG>.00</CAPITASG>
      <CAPITIMP>.00</CAPITIMP>
    </COBERTURA>
    <COBERTURA>
      <COBERCOD>030</COBERCOD>
      <COBERORD>1</COBERORD>
      <CAPITASG>.00</CAPITASG>
      <CAPITIMP>.00</CAPITIMP>
    </COBERTURA>
    <COBERTURA>
      <COBERCOD>027</COBERCOD>
      <COBERORD>15</COBERORD>
      <CAPITASG>69000.00</CAPITASG>
      <CAPITIMP>69000.00</CAPITIMP>
    </COBERTURA>
    <COBERTURA>
      <COBERCOD>004</COBERCOD>
      <COBERORD>16</COBERORD>
      <CAPITASG>69000.00</CAPITASG>
      <CAPITIMP>69000.00</CAPITIMP>
    </COBERTURA>
    <COBERTURA>
      <COBERCOD>003</COBERCOD>
      <COBERORD>32</COBERORD>
      <CAPITASG>69000.00</CAPITASG>
      <CAPITIMP>69000.00</CAPITIMP>
    </COBERTURA>
  </COBERTURAS>
  <SUPLENUM>0000</SUPLENUM>
  <HIJOS1416>N</HIJOS1416>
  <HIJOS1729>N</HIJOS1729>
  <HIJOS1729ND>N</HIJOS1729ND>
  <ZONA>38</ZONA>
  <SUMALBA>813.00</SUMALBA>
  <SUMASEG>813.00</SUMASEG>
  <CLUB_LBA>S</CLUB_LBA>
  <COND_ADIC>N</COND_ADIC>
  <ASEG_ADIC>N</ASEG_ADIC>
  <SIACCESORIOS>N</SIACCESORIOS>
  <REFERIDO>N</REFERIDO>
  <AUVTVCOD>N</AUVTVCOD>
  <FABRICMES>01</FABRICMES>
  <AUUSOGNC>N</AUUSOGNC>
  <COBROFOR>1</COBROFOR>
  <INSPECOD>0019</INSPECOD>
  <COBROCOD>0005</COBROCOD>
  <SINIESTROS>0</SINIESTROS>
  <CLUBECO>N</CLUBECO>
  <GRANIZO>N</GRANIZO>
  <ROBOCONT>N</ROBOCONT>
  <LUNETA>N</LUNETA>
  <DATOSPLAN>14 99</DATOSPLAN>
  <SN_NBWS>N</SN_NBWS>
  <SN_PRESTAMAIL>N</SN_PRESTAMAIL>
  <PLANPAGOCOD>998</PLANPAGOCOD>
  <SWAPODER>N</SWAPODER>
</Request>