status testeo msgs

1010
	sin area

1102
	tiene area

1103
	sin area

1106
	log sin area

1107
	log sin area

1108
	log sin area

1109
	log sin area

1401
	log sin area

Así que armo los tests como para probar todo, sin el MQ, y los corro en QBE

OK, hice un test
para correrlo, hacer mvn install a common, aisconnector y mqgen
después correr mvn test en el CMS-ovmq ( tiene puesto un flag para que ignore los errores de compilacion) Esto último no anduvo así que tuve que sacar los ardhivos que no compilaban... con rm...
hice el 1108

Bueno pasar los logs que mandó martín, que los tengo en el TransferQBE/LogMensajes
Usar esos, los que tenía eran viejos.
Meterlos todos y ver que da, en QBE
Escribir la página de ocmo correr tests y hacer deployment en QBE

poniendo debug a los tests
-Djava.util.logging.config.file=/Users/ramiro/dev/migracioncomplus/dev/CMS-ovmq/target/test-classes/logging.properties

ok esta en em pom
no andan bien en QBE, debuggeo con un area mockeada
ver area_1010.txt
--> Ver por acá

debuggeando el 1010
xmlresponse antes de aplicar elXSL:
<RS>
    <R><![CDATA[000002145290001101879610ARMATI , MARIA ADRIANA       FORD KA J4HVU00611            RENOVADA                      00PR20001SNAUS1000000010000]]></R>
    <R><![CDATA[00005100500000101879610ARMATI ,MARIA ADRIANA        FORD KA J4HVU00611            RENOVADA                      00PR20001SNAUS10000000100000]]></R>
    <R><![CDATA[0006653110001101879610ARMATI , MARIA ADRIANA        FORD KA J4HVU00611            RENOVADA                      00PR20001SNAUS10000000100000]]></R>
    <R><![CDATA[0008168490001101879610ARMATI , MARIA ADRIANA        FORD KA J4HVU00611            RENOVADA                      00PR20001SNAUS10000000100000]]></R>
    <R><![CDATA[0009736040000101879610ARMATI , MARIA ADRIANA        FORD KA J4HVU00611            ANULADA                       00PR20001 NAUS10000000100000]]></R>
    <R><![CDATA[0010884940001101879610ARMATI , MARIA ADRIANA        CITROEN C3 10DBS40005787      RENOVADA           00PR20001SNAUS1000000010000000125233400]]></R>
    <R><![CDATA[02101879610ARMATI , MARIA ADRIANA        CITROEN C3 10DBS40005787      RENOVADA                      00PR20001SNAUS1000000010000000141166500]]></R>
    <R><![CDATA[00101879610ARMATI , MARIA ADRIANA        CITROEN C3 10DBS40005787      VIGENTE                       10PR20001SSHOC1003108660000000000000000]]></R>
    <R><![CDATA[00101879610ARMATI , MARIA ADRIANA        ARMATI, MARIA ADRIANA        RENOVADA                      00PR20002S HOC10032252800000000000000000]]></R>
    <R><![CDATA[0101879610ARMATI , MARIA ADRIANA       ARMATI , MARIA ADRIANA        VIGENTE                       00PR20002S HOM100141786000000000002690000]]></R>
    <R><![CDATA[101879610ARMATI ,MARIA ADRIANA        MANUEL CASTRO, 746            RENOVADA                      00PR20001SNHOM1001417860000000000031600001]]></R>
    <R><![CDATA[01879610ARMATI , MARIA ADRIANA        MANUEL CASTRO, 746            RENOVADA                      00PR20001SNHOM1001417860000000000035800001]]></R>
    <R><![CDATA[01879610ARMATI , MARIA ADRIANA        MANUEL CASTRO, 746            RENOVADA                      00PR20001SNHOM1001417860000000000039100001]]></R>
    <R><![CDATA[01879610ARMATI , MARIA ADRIANA        MANUEL CASTRO, 746            RENOVADA                      00PR20001SNHOM1001417860000000000042400001]]></R>
    <R><![CDATA[01879610ARMATI , MARIA ADRIANA        MANUEL CASTRO, 746            RENOVADA           00PR20001SNHOM100141786000000000004530000101879610ARM]]></R>
    <R><![CDATA[ATI , MARIA ADRIANA        MANUEL CASTRO, 746            ANULADA                       00PR20001 NHOM100221283000000000003410000101879610ARM]]></R>
    <R><![CDATA[ATI , MARIA ADRIANA        FLORIDA, 229         ANULADA                       00PR20001 NHOM100221284000000000049010000101879610ARMATI , MAR]]></R>
    <R><![CDATA[IA ADRIANA        JUAN HIPOLITO VIEYTES, 234    RENOVADA                      00PR20001SNHOM100221284000000000077400002101879610ARMATI , MAR]]></R>
    <R><![CDATA[IA ADRIANA       JUAN HIPOLITO VIEYTES, 234    RENOVADA                      00PR20001SNHOM100221284000000000117160000101879610ARMATI ,MARIA]]></R>
    <R><![CDATA[ ADRIANA        JUAN HIPOLITO VIEYTES, 234    RENOVADA                      00PR20001SNHOM100221284000000000162200001101879610ARMATI , MARIA]]></R>
    <R><![CDATA[ ADRIANA        JUAN HIPOLITO VIEYTES, 234    RENOVADA                      00PR20001SNHOM100221284000000000215260000101879610ARMATI , MARIA]]></R>
    <R><![CDATA[ ADRIANA        JUAN HIPOLITO VIEYTES, 234    ANULADA                       00PR20001 NATD100173250000000000000940000101879610ARMATI , MARIA]]></R>
    <R><![CDATA[ ADRIANA        L. N. ALEM, 01550             RENOVADA                      00PR81841S ATD100173250000000000032230000101879610ARMATI , MARIA]]></R>
    <R><![CDATA[ ADRIANA        L. N. ALEM, 01550             RENOVADA           00PR81841S ATD100173250000000000067230000101879610ARMATI , MARIA ADRIANA   ]]></R>
</RS>

xsl:
<xsl:stylesheet xmlns:xsl="http://www.w3.org/1999/XSL/Transform" version="1.0">
    <xsl:decimal-format decimal-separator="," grouping-separator="." name="european"/>
    <xsl:template match="/">
        <xsl:element name="REGS">
            <xsl:apply-templates select="/RS/R"/>
        </xsl:element>
    </xsl:template>
    <xsl:template match="/RS/R">
        <xsl:element name="REG">
            <xsl:element name="PROD">
                <xsl:value-of select="substring(.,1,4)"/>
            </xsl:element>
            <xsl:element name="POL">
                <xsl:value-of select="substring(.,5,8)"/>
            </xsl:element>
            <xsl:element name="CERPOL">
                <xsl:value-of select="substring(.,13,4)"/>
            </xsl:element>
            <xsl:element name="CERANN">
                <xsl:value-of select="substring(.,17,4)"/>
            </xsl:element>
            <xsl:element name="CERSEC">
                <xsl:value-of select="substring(.,21,6)"/>
            </xsl:element>
            <xsl:element name="CLIDES">
                <xsl:value-of select="normalize-space(substring(.,40,30))"/>
            </xsl:element>
            <xsl:element name="TOMA">
                <xsl:value-of select="normalize-space(substring(.,70,30))"/>
            </xsl:element>
            <xsl:element name="EST">
                <xsl:value-of select="normalize-space(substring(.,100,30))"/>
            </xsl:element>
            <xsl:element name="SINI">
                <xsl:value-of select="substring(.,130,1)"/>
            </xsl:element>
            <xsl:element name="ALERTEXI">
                <xsl:value-of select="substring(.,131,1)"/>
            </xsl:element>
            <xsl:element name="AGE">
                <xsl:value-of select="substring(.,132,2)"/>-<xsl:value-of select="substring(.,134,4)"/>
            </xsl:element>
            <xsl:element name="RAMO">
                <xsl:value-of select="substring(.,138,1)"/>
            </xsl:element>
            <xsl:element name="MARCAREIMPRESION">
                <xsl:value-of select="substring(.,139,1)"/>
            </xsl:element>
            <xsl:element name="MARCAENDOSABLE">
                <xsl:value-of select="substring(.,140,1)"/>
            </xsl:element>
        </xsl:element>
    </xsl:template>
    <xsl:output cdata-section-elements="CLIDES"/>
    <xsl:output cdata-section-elements="TOMA"/>
    <xsl:output cdata-section-elements="EST"/>
</xsl:stylesheet>

el transformNode devuelve:
<?xml version="1.0" encoding="UTF-8"?><REGS><REG><PROD>0000</PROD><POL>02145290</POL><CERPOL>0011</CERPOL><CERANN>0187</CERANN><CERSEC>9610AR</CERSEC><CLIDES><![CDATA[ADRIANA FORD KA J4HVU006]]></CLIDES><TOMA><![CDATA[11 RENOVADA]]></TOMA><EST><![CDATA[00PR20001SNAUS10]]></EST><SINI>0</SINI><ALERTEXI>0</ALERTEXI><AGE>00-0010</AGE><RAMO>0</RAMO><MARCAREIMPRESION>0</MARCAREIMPRESION><MARCAENDOSABLE>0</MARCAENDOSABLE></REG><REG><PROD>0000</PROD><POL>51005000</POL><CERPOL>0010</CERPOL><CERANN>1879</CERANN><CERSEC>610ARM</CERSEC><CLIDES><![CDATA[RIANA FORD KA J4HVU0061]]></CLIDES><TOMA><![CDATA[1 RENOVADA]]></TOMA><EST><![CDATA[00PR20001SNAUS100]]></EST><SINI>0</SINI><ALERTEXI>0</ALERTEXI><AGE>00-0100</AGE><RAMO>0</RAMO><MARCAREIMPRESION>0</MARCAREIMPRESION><MARCAENDOSABLE>0</MARCAENDOSABLE></REG><REG><PROD>0006</PROD><POL>65311000</POL><CERPOL>1101</CERPOL><CERANN>8796</CERANN><CERSEC>10ARMA</CERSEC><CLIDES><![CDATA[RIANA FORD KA J4HVU0061]]></CLIDES><TOMA><![CDATA[1 RENOVADA]]></TOMA><EST><![CDATA[00PR20001SNAUS100]]></EST><SINI>0</SINI><ALERTEXI>0</ALERTEXI><AGE>00-0100</AGE><RAMO>0</RAMO><MARCAREIMPRESION>0</MARCAREIMPRESION><MARCAENDOSABLE>0</MARCAENDOSABLE></REG><REG><PROD>0008</PROD><POL>16849000</POL><CERPOL>1101</CERPOL><CERANN>8796</CERANN><CERSEC>10ARMA</CERSEC><CLIDES><![CDATA[RIANA FORD KA J4HVU0061]]></CLIDES><TOMA><![CDATA[1 RENOVADA]]></TOMA><EST><![CDATA[00PR20001SNAUS100]]></EST><SINI>0</SINI><ALERTEXI>0</ALERTEXI><AGE>00-0100</AGE><RAMO>0</RAMO><MARCAREIMPRESION>0</MARCAREIMPRESION><MARCAENDOSABLE>0</MARCAENDOSABLE></REG><REG><PROD>0009</PROD><POL>73604000</POL><CERPOL>0101</CERPOL><CERANN>8796</CERANN><CERSEC>10ARMA</CERSEC><CLIDES><![CDATA[RIANA FORD KA J4HVU0061]]></CLIDES><TOMA><![CDATA[1 ANULADA]]></TOMA><EST><![CDATA[00PR20001 NAUS100]]></EST><SINI>0</SINI><ALERTEXI>0</ALERTEXI><AGE>00-0100</AGE><RAMO>0</RAMO><MARCAREIMPRESION>0</MARCAREIMPRESION><MARCAENDOSABLE>0</MARCAENDOSABLE></REG><REG><PROD>0010</PROD><POL>88494000</POL><CERPOL>1101</CERPOL><CERANN>8796</CERANN><CERSEC>10ARMA</CERSEC><CLIDES><![CDATA[RIANA CITROEN C3 10DBS4]]></CLIDES><TOMA><![CDATA[0005787 RENOVADA]]></TOMA><EST><![CDATA[00PR20001SNAUS10000000100000]]></EST><SINI>0</SINI><ALERTEXI>0</ALERTEXI><AGE>12-5233</AGE><RAMO>4</RAMO><MARCAREIMPRESION>0</MARCAREIMPRESION><MARCAENDOSABLE>0</MARCAENDOSABLE></REG><REG><PROD>0210</PROD><POL>1879610A</POL><CERPOL>RMAT</CERPOL><CERANN>I , </CERANN><CERSEC>MARIA </CERSEC><CLIDES><![CDATA[CITROEN C3 10DBS40005787]]></CLIDES><TOMA><![CDATA[RENOVADA]]></TOMA><EST><![CDATA[00PR20001SNAUS10000000100000]]></EST><SINI>0</SINI><ALERTEXI>0</ALERTEXI><AGE>14-1166</AGE><RAMO>5</RAMO><MARCAREIMPRESION>0</MARCAREIMPRESION><MARCAENDOSABLE>0</MARCAENDOSABLE></REG><REG><PROD>0010</PROD><POL>1879610A</POL><CERPOL>RMAT</CERPOL><CERANN>I , </CERANN><CERSEC>MARIA </CERSEC><CLIDES><![CDATA[CITROEN C3 10DBS40005787]]></CLIDES><TOMA><![CDATA[VIGENTE]]></TOMA><EST><![CDATA[10PR20001SSHOC10031086600000]]></EST><SINI>0</SINI><ALERTEXI>0</ALERTEXI><AGE>00-0000</AGE><RAMO>0</RAMO><MARCAREIMPRESION>0</MARCAREIMPRESION><MARCAENDOSABLE>0</MARCAENDOSABLE></REG><REG><PROD>0010</PROD><POL>1879610A</POL><CERPOL>RMAT</CERPOL><CERANN>I , </CERANN><CERSEC>MARIA </CERSEC><CLIDES><![CDATA[ARMATI, MARIA ADRIANA]]></CLIDES><TOMA><![CDATA[RENOVADA]]></TOMA><EST><![CDATA[00PR20002S HOC100322528000000]]></EST><SINI>0</SINI><ALERTEXI>0</ALERTEXI><AGE>00-0000</AGE><RAMO>0</RAMO><MARCAREIMPRESION>0</MARCAREIMPRESION><MARCAENDOSABLE>0</MARCAENDOSABLE></REG><REG><PROD>0101</PROD><POL>879610AR</POL><CERPOL>MATI</CERPOL><CERANN> , M</CERANN><CERSEC>ARIA A</CERSEC><CLIDES><![CDATA[ARMATI , MARIA ADRIANA]]></CLIDES><TOMA><![CDATA[VIGENTE]]></TOMA><EST><![CDATA[00PR20002S HOM1001417860000000]]></EST><SINI>0</SINI><ALERTEXI>0</ALERTEXI><AGE>00-2690</AGE><RAMO>0</RAMO><MARCAREIMPRESION>0</MARCAREIMPRESION><MARCAENDOSABLE>0</MARCAENDOSABLE></REG><REG><PROD>1018</PROD><POL>79610ARM</POL><CERPOL>ATI </CERPOL><CERANN>,MAR</CERANN><CERSEC>IA ADR</CERSEC><CLIDES><![CDATA[ANUEL CASTRO, 746 R]]></CLIDES><TOMA><![CDATA[ENOVADA 0]]></TOMA><EST><![CDATA[0PR20001SNHOM10014178600000000]]></EST><SINI>0</SINI><ALERTEXI>0</ALERTEXI><AGE>03-1600</AGE><RAMO>0</RAMO><MARCAREIMPRESION>0</MARCAREIMPRESION><MARCAENDOSABLE>1</MARCAENDOSABLE></REG><REG><PROD>0187</PROD><POL>9610ARMA</POL><CERPOL>TI ,</CERPOL><CERANN> MAR</CERANN><CERSEC>IA ADR</CERSEC><CLIDES><![CDATA[ANUEL CASTRO, 746 R]]></CLIDES><TOMA><![CDATA[ENOVADA 0]]></TOMA><EST><![CDATA[0PR20001SNHOM10014178600000000]]></EST><SINI>0</SINI><ALERTEXI>0</ALERTEXI><AGE>03-5800</AGE><RAMO>0</RAMO><MARCAREIMPRESION>0</MARCAREIMPRESION><MARCAENDOSABLE>1</MARCAENDOSABLE></REG><REG><PROD>0187</PROD><POL>9610ARMA</POL><CERPOL>TI ,</CERPOL><CERANN> MAR</CERANN><CERSEC>IA ADR</CERSEC><CLIDES><![CDATA[ANUEL CASTRO, 746 R]]></CLIDES><TOMA><![CDATA[ENOVADA 0]]></TOMA><EST><![CDATA[0PR20001SNHOM10014178600000000]]></EST><SINI>0</SINI><ALERTEXI>0</ALERTEXI><AGE>03-9100</AGE><RAMO>0</RAMO><MARCAREIMPRESION>0</MARCAREIMPRESION><MARCAENDOSABLE>1</MARCAENDOSABLE></REG><REG><PROD>0187</PROD><POL>9610ARMA</POL><CERPOL>TI ,</CERPOL><CERANN> MAR</CERANN><CERSEC>IA ADR</CERSEC><CLIDES><![CDATA[ANUEL CASTRO, 746 R]]></CLIDES><TOMA><![CDATA[ENOVADA 0]]></TOMA><EST><![CDATA[0PR20001SNHOM10014178600000000]]></EST><SINI>0</SINI><ALERTEXI>0</ALERTEXI><AGE>04-2400</AGE><RAMO>0</RAMO><MARCAREIMPRESION>0</MARCAREIMPRESION><MARCAENDOSABLE>1</MARCAENDOSABLE></REG><REG><PROD>0187</PROD><POL>9610ARMA</POL><CERPOL>TI ,</CERPOL><CERANN> MAR</CERANN><CERSEC>IA ADR</CERSEC><CLIDES><![CDATA[ANUEL CASTRO, 746 R]]></CLIDES><TOMA><![CDATA[ENOVADA 00PR20001SNH]]></TOMA><EST><![CDATA[OM1001417860000000000045300001]]></EST><SINI>0</SINI><ALERTEXI>1</ALERTEXI><AGE>87-9610</AGE><RAMO>A</RAMO><MARCAREIMPRESION>R</MARCAREIMPRESION><MARCAENDOSABLE>M</MARCAENDOSABLE></REG><REG><PROD>ATI </PROD><POL>, MARIA </POL><CERPOL>ADRI</CERPOL><CERANN>ANA </CERANN><CERSEC>      </CERSEC><CLIDES><![CDATA[O, 746 ANULADA]]></CLIDES><TOMA><![CDATA[00PR20001 NH]]></TOMA><EST><![CDATA[OM1002212830000000000034100001]]></EST><SINI>0</SINI><ALERTEXI>1</ALERTEXI><AGE>87-9610</AGE><RAMO>A</RAMO><MARCAREIMPRESION>R</MARCAREIMPRESION><MARCAENDOSABLE>M</MARCAENDOSABLE></REG><REG><PROD>ATI </PROD><POL>, MARIA </POL><CERPOL>ADRI</CERPOL><CERANN>ANA </CERANN><CERSEC>      </CERSEC><CLIDES><![CDATA[ANULADA]]></CLIDES><TOMA><![CDATA[00PR20001 NHOM1002212]]></TOMA><EST><![CDATA[84000000000049010000101879610A]]></EST><SINI>R</SINI><ALERTEXI>M</ALERTEXI><AGE>AT-I , </AGE><RAMO>M</RAMO><MARCAREIMPRESION>A</MARCAREIMPRESION><MARCAENDOSABLE>R</MARCAENDOSABLE></REG><REG><PROD>IA A</PROD><POL>DRIANA  </POL><CERPOL>    </CERPOL><CERANN>  JU</CERANN><CERSEC>AN HIP</CERSEC><CLIDES><![CDATA[, 234 RENOVADA]]></CLIDES><TOMA><![CDATA[00PR20001SNHOM1002212]]></TOMA><EST><![CDATA[84000000000077400002101879610A]]></EST><SINI>R</SINI><ALERTEXI>M</ALERTEXI><AGE>AT-I , </AGE><RAMO>M</RAMO><MARCAREIMPRESION>A</MARCAREIMPRESION><MARCAENDOSABLE>R</MARCAENDOSABLE></REG><REG><PROD>IA A</PROD><POL>DRIANA  </POL><CERPOL>    </CERPOL><CERANN> JUA</CERANN><CERSEC>N HIPO</CERSEC><CLIDES><![CDATA[234 RENOVADA]]></CLIDES><TOMA><![CDATA[00PR20001SNHOM10022128]]></TOMA><EST><![CDATA[4000000000117160000101879610AR]]></EST><SINI>M</SINI><ALERTEXI>A</ALERTEXI><AGE>TI- ,MA</AGE><RAMO>R</RAMO><MARCAREIMPRESION>I</MARCAREIMPRESION><MARCAENDOSABLE>A</MARCAENDOSABLE></REG><REG><PROD> ADR</PROD><POL>IANA    </POL><CERPOL>    </CERPOL><CERANN>JUAN</CERANN><CERSEC> HIPOL</CERSEC><CLIDES><![CDATA[234 RENOVADA]]></CLIDES><TOMA><![CDATA[00PR20001SNHOM100221284]]></TOMA><EST><![CDATA[000000000162200001101879610ARM]]></EST><SINI>A</SINI><ALERTEXI>T</ALERTEXI><AGE>I -, MA</AGE><RAMO>R</RAMO><MARCAREIMPRESION>I</MARCAREIMPRESION><MARCAENDOSABLE>A</MARCAENDOSABLE></REG><REG><PROD> ADR</PROD><POL>IANA    </POL><CERPOL>    </CERPOL><CERANN>JUAN</CERANN><CERSEC> HIPOL</CERSEC><CLIDES><![CDATA[234 RENOVADA]]></CLIDES><TOMA><![CDATA[00PR20001SNHOM100221284]]></TOMA><EST><![CDATA[000000000215260000101879610ARM]]></EST><SINI>A</SINI><ALERTEXI>T</ALERTEXI><AGE>I -, MA</AGE><RAMO>R</RAMO><MARCAREIMPRESION>I</MARCAREIMPRESION><MARCAENDOSABLE>A</MARCAENDOSABLE></REG><REG><PROD> ADR</PROD><POL>IANA    </POL><CERPOL>    </CERPOL><CERANN>JUAN</CERANN><CERSEC> HIPOL</CERSEC><CLIDES><![CDATA[234 ANULADA]]></CLIDES><TOMA><![CDATA[00PR20001 NATD100173250]]></TOMA><EST><![CDATA[000000000000940000101879610ARM]]></EST><SINI>A</SINI><ALERTEXI>T</ALERTEXI><AGE>I -, MA</AGE><RAMO>R</RAMO><MARCAREIMPRESION>I</MARCAREIMPRESION><MARCAENDOSABLE>A</MARCAENDOSABLE></REG><REG><PROD> ADR</PROD><POL>IANA    </POL><CERPOL>    </CERPOL><CERANN>L. N</CERANN><CERSEC>. ALEM</CERSEC><CLIDES><![CDATA[RENOVADA]]></CLIDES><TOMA><![CDATA[00PR81841S ATD100173250]]></TOMA><EST><![CDATA[000000000032230000101879610ARM]]></EST><SINI>A</SINI><ALERTEXI>T</ALERTEXI><AGE>I -, MA</AGE><RAMO>R</RAMO><MARCAREIMPRESION>I</MARCAREIMPRESION><MARCAENDOSABLE>A</MARCAENDOSABLE></REG><REG><PROD> ADR</PROD><POL>IANA    </POL><CERPOL>    </CERPOL><CERANN>L. N</CERANN><CERSEC>. ALEM</CERSEC><CLIDES><![CDATA[RENOVADA 00PR]]></CLIDES><TOMA><![CDATA[81841S ATD10017325000000000006]]></TOMA><EST><![CDATA[7230000101879610ARMATI , MARIA]]></EST><SINI> </SINI><ALERTEXI>A</ALERTEXI><AGE>DR-IANA</AGE><RAMO> </RAMO><MARCAREIMPRESION> </MARCAREIMPRESION><MARCAENDOSABLE> </MARCAENDOSABLE></REG></REGS>

le aplico el replaceAll que saca(ría) la linea <?xml y queda:
<REGS><REG><PROD>0000</PROD><POL>02145290</POL><CERPOL>0011</CERPOL><CERANN>0187</CERANN><CERSEC>9610AR</CERSEC><CLIDES><![CDATA[ADRIANA FORD KA J4HVU006]]></CLIDES><TOMA><![CDATA[11 RENOVADA]]></TOMA><EST><![CDATA[00PR20001SNAUS10]]></EST><SINI>0</SINI><ALERTEXI>0</ALERTEXI><AGE>00-0010</AGE><RAMO>0</RAMO><MARCAREIMPRESION>0</MARCAREIMPRESION><MARCAENDOSABLE>0</MARCAENDOSABLE></REG><REG><PROD>0000</PROD><POL>51005000</POL><CERPOL>0010</CERPOL><CERANN>1879</CERANN><CERSEC>610ARM</CERSEC><CLIDES><![CDATA[RIANA FORD KA J4HVU0061]]></CLIDES><TOMA><![CDATA[1 RENOVADA]]></TOMA><EST><![CDATA[00PR20001SNAUS100]]></EST><SINI>0</SINI><ALERTEXI>0</ALERTEXI><AGE>00-0100</AGE><RAMO>0</RAMO><MARCAREIMPRESION>0</MARCAREIMPRESION><MARCAENDOSABLE>0</MARCAENDOSABLE></REG><REG><PROD>0006</PROD><POL>65311000</POL><CERPOL>1101</CERPOL><CERANN>8796</CERANN><CERSEC>10ARMA</CERSEC><CLIDES><![CDATA[RIANA FORD KA J4HVU0061]]></CLIDES><TOMA><![CDATA[1 RENOVADA]]></TOMA><EST><![CDATA[00PR20001SNAUS100]]></EST><SINI>0</SINI><ALERTEXI>0</ALERTEXI><AGE>00-0100</AGE><RAMO>0</RAMO><MARCAREIMPRESION>0</MARCAREIMPRESION><MARCAENDOSABLE>0</MARCAENDOSABLE></REG><REG><PROD>0008</PROD><POL>16849000</POL><CERPOL>1101</CERPOL><CERANN>8796</CERANN><CERSEC>10ARMA</CERSEC><CLIDES><![CDATA[RIANA FORD KA J4HVU0061]]></CLIDES><TOMA><![CDATA[1 RENOVADA]]></TOMA><EST><![CDATA[00PR20001SNAUS100]]></EST><SINI>0</SINI><ALERTEXI>0</ALERTEXI><AGE>00-0100</AGE><RAMO>0</RAMO><MARCAREIMPRESION>0</MARCAREIMPRESION><MARCAENDOSABLE>0</MARCAENDOSABLE></REG><REG><PROD>0009</PROD><POL>73604000</POL><CERPOL>0101</CERPOL><CERANN>8796</CERANN><CERSEC>10ARMA</CERSEC><CLIDES><![CDATA[RIANA FORD KA J4HVU0061]]></CLIDES><TOMA><![CDATA[1 ANULADA]]></TOMA><EST><![CDATA[00PR20001 NAUS100]]></EST><SINI>0</SINI><ALERTEXI>0</ALERTEXI><AGE>00-0100</AGE><RAMO>0</RAMO><MARCAREIMPRESION>0</MARCAREIMPRESION><MARCAENDOSABLE>0</MARCAENDOSABLE></REG><REG><PROD>0010</PROD><POL>88494000</POL><CERPOL>1101</CERPOL><CERANN>8796</CERANN><CERSEC>10ARMA</CERSEC><CLIDES><![CDATA[RIANA CITROEN C3 10DBS4]]></CLIDES><TOMA><![CDATA[0005787 RENOVADA]]></TOMA><EST><![CDATA[00PR20001SNAUS10000000100000]]></EST><SINI>0</SINI><ALERTEXI>0</ALERTEXI><AGE>12-5233</AGE><RAMO>4</RAMO><MARCAREIMPRESION>0</MARCAREIMPRESION><MARCAENDOSABLE>0</MARCAENDOSABLE></REG><REG><PROD>0210</PROD><POL>1879610A</POL><CERPOL>RMAT</CERPOL><CERANN>I , </CERANN><CERSEC>MARIA </CERSEC><CLIDES><![CDATA[CITROEN C3 10DBS40005787]]></CLIDES><TOMA><![CDATA[RENOVADA]]></TOMA><EST><![CDATA[00PR20001SNAUS10000000100000]]></EST><SINI>0</SINI><ALERTEXI>0</ALERTEXI><AGE>14-1166</AGE><RAMO>5</RAMO><MARCAREIMPRESION>0</MARCAREIMPRESION><MARCAENDOSABLE>0</MARCAENDOSABLE></REG><REG><PROD>0010</PROD><POL>1879610A</POL><CERPOL>RMAT</CERPOL><CERANN>I , </CERANN><CERSEC>MARIA </CERSEC><CLIDES><![CDATA[CITROEN C3 10DBS40005787]]></CLIDES><TOMA><![CDATA[VIGENTE]]></TOMA><EST><![CDATA[10PR20001SSHOC10031086600000]]></EST><SINI>0</SINI><ALERTEXI>0</ALERTEXI><AGE>00-0000</AGE><RAMO>0</RAMO><MARCAREIMPRESION>0</MARCAREIMPRESION><MARCAENDOSABLE>0</MARCAENDOSABLE></REG><REG><PROD>0010</PROD><POL>1879610A</POL><CERPOL>RMAT</CERPOL><CERANN>I , </CERANN><CERSEC>MARIA </CERSEC><CLIDES><![CDATA[ARMATI, MARIA ADRIANA]]></CLIDES><TOMA><![CDATA[RENOVADA]]></TOMA><EST><![CDATA[00PR20002S HOC100322528000000]]></EST><SINI>0</SINI><ALERTEXI>0</ALERTEXI><AGE>00-0000</AGE><RAMO>0</RAMO><MARCAREIMPRESION>0</MARCAREIMPRESION><MARCAENDOSABLE>0</MARCAENDOSABLE></REG><REG><PROD>0101</PROD><POL>879610AR</POL><CERPOL>MATI</CERPOL><CERANN> , M</CERANN><CERSEC>ARIA A</CERSEC><CLIDES><![CDATA[ARMATI , MARIA ADRIANA]]></CLIDES><TOMA><![CDATA[VIGENTE]]></TOMA><EST><![CDATA[00PR20002S HOM1001417860000000]]></EST><SINI>0</SINI><ALERTEXI>0</ALERTEXI><AGE>00-2690</AGE><RAMO>0</RAMO><MARCAREIMPRESION>0</MARCAREIMPRESION><MARCAENDOSABLE>0</MARCAENDOSABLE></REG><REG><PROD>1018</PROD><POL>79610ARM</POL><CERPOL>ATI </CERPOL><CERANN>,MAR</CERANN><CERSEC>IA ADR</CERSEC><CLIDES><![CDATA[ANUEL CASTRO, 746 R]]></CLIDES><TOMA><![CDATA[ENOVADA 0]]></TOMA><EST><![CDATA[0PR20001SNHOM10014178600000000]]></EST><SINI>0</SINI><ALERTEXI>0</ALERTEXI><AGE>03-1600</AGE><RAMO>0</RAMO><MARCAREIMPRESION>0</MARCAREIMPRESION><MARCAENDOSABLE>1</MARCAENDOSABLE></REG><REG><PROD>0187</PROD><POL>9610ARMA</POL><CERPOL>TI ,</CERPOL><CERANN> MAR</CERANN><CERSEC>IA ADR</CERSEC><CLIDES><![CDATA[ANUEL CASTRO, 746 R]]></CLIDES><TOMA><![CDATA[ENOVADA 0]]></TOMA><EST><![CDATA[0PR20001SNHOM10014178600000000]]></EST><SINI>0</SINI><ALERTEXI>0</ALERTEXI><AGE>03-5800</AGE><RAMO>0</RAMO><MARCAREIMPRESION>0</MARCAREIMPRESION><MARCAENDOSABLE>1</MARCAENDOSABLE></REG><REG><PROD>0187</PROD><POL>9610ARMA</POL><CERPOL>TI ,</CERPOL><CERANN> MAR</CERANN><CERSEC>IA ADR</CERSEC><CLIDES><![CDATA[ANUEL CASTRO, 746 R]]></CLIDES><TOMA><![CDATA[ENOVADA 0]]></TOMA><EST><![CDATA[0PR20001SNHOM10014178600000000]]></EST><SINI>0</SINI><ALERTEXI>0</ALERTEXI><AGE>03-9100</AGE><RAMO>0</RAMO><MARCAREIMPRESION>0</MARCAREIMPRESION><MARCAENDOSABLE>1</MARCAENDOSABLE></REG><REG><PROD>0187</PROD><POL>9610ARMA</POL><CERPOL>TI ,</CERPOL><CERANN> MAR</CERANN><CERSEC>IA ADR</CERSEC><CLIDES><![CDATA[ANUEL CASTRO, 746 R]]></CLIDES><TOMA><![CDATA[ENOVADA 0]]></TOMA><EST><![CDATA[0PR20001SNHOM10014178600000000]]></EST><SINI>0</SINI><ALERTEXI>0</ALERTEXI><AGE>04-2400</AGE><RAMO>0</RAMO><MARCAREIMPRESION>0</MARCAREIMPRESION><MARCAENDOSABLE>1</MARCAENDOSABLE></REG><REG><PROD>0187</PROD><POL>9610ARMA</POL><CERPOL>TI ,</CERPOL><CERANN> MAR</CERANN><CERSEC>IA ADR</CERSEC><CLIDES><![CDATA[ANUEL CASTRO, 746 R]]></CLIDES><TOMA><![CDATA[ENOVADA 00PR20001SNH]]></TOMA><EST><![CDATA[OM1001417860000000000045300001]]></EST><SINI>0</SINI><ALERTEXI>1</ALERTEXI><AGE>87-9610</AGE><RAMO>A</RAMO><MARCAREIMPRESION>R</MARCAREIMPRESION><MARCAENDOSABLE>M</MARCAENDOSABLE></REG><REG><PROD>ATI </PROD><POL>, MARIA </POL><CERPOL>ADRI</CERPOL><CERANN>ANA </CERANN><CERSEC>      </CERSEC><CLIDES><![CDATA[O, 746 ANULADA]]></CLIDES><TOMA><![CDATA[00PR20001 NH]]></TOMA><EST><![CDATA[OM1002212830000000000034100001]]></EST><SINI>0</SINI><ALERTEXI>1</ALERTEXI><AGE>87-9610</AGE><RAMO>A</RAMO><MARCAREIMPRESION>R</MARCAREIMPRESION><MARCAENDOSABLE>M</MARCAENDOSABLE></REG><REG><PROD>ATI </PROD><POL>, MARIA </POL><CERPOL>ADRI</CERPOL><CERANN>ANA </CERANN><CERSEC>      </CERSEC><CLIDES><![CDATA[ANULADA]]></CLIDES><TOMA><![CDATA[00PR20001 NHOM1002212]]></TOMA><EST><![CDATA[84000000000049010000101879610A]]></EST><SINI>R</SINI><ALERTEXI>M</ALERTEXI><AGE>AT-I , </AGE><RAMO>M</RAMO><MARCAREIMPRESION>A</MARCAREIMPRESION><MARCAENDOSABLE>R</MARCAENDOSABLE></REG><REG><PROD>IA A</PROD><POL>DRIANA  </POL><CERPOL>    </CERPOL><CERANN>  JU</CERANN><CERSEC>AN HIP</CERSEC><CLIDES><![CDATA[, 234 RENOVADA]]></CLIDES><TOMA><![CDATA[00PR20001SNHOM1002212]]></TOMA><EST><![CDATA[84000000000077400002101879610A]]></EST><SINI>R</SINI><ALERTEXI>M</ALERTEXI><AGE>AT-I , </AGE><RAMO>M</RAMO><MARCAREIMPRESION>A</MARCAREIMPRESION><MARCAENDOSABLE>R</MARCAENDOSABLE></REG><REG><PROD>IA A</PROD><POL>DRIANA  </POL><CERPOL>    </CERPOL><CERANN> JUA</CERANN><CERSEC>N HIPO</CERSEC><CLIDES><![CDATA[234 RENOVADA]]></CLIDES><TOMA><![CDATA[00PR20001SNHOM10022128]]></TOMA><EST><![CDATA[4000000000117160000101879610AR]]></EST><SINI>M</SINI><ALERTEXI>A</ALERTEXI><AGE>TI- ,MA</AGE><RAMO>R</RAMO><MARCAREIMPRESION>I</MARCAREIMPRESION><MARCAENDOSABLE>A</MARCAENDOSABLE></REG><REG><PROD> ADR</PROD><POL>IANA    </POL><CERPOL>    </CERPOL><CERANN>JUAN</CERANN><CERSEC> HIPOL</CERSEC><CLIDES><![CDATA[234 RENOVADA]]></CLIDES><TOMA><![CDATA[00PR20001SNHOM100221284]]></TOMA><EST><![CDATA[000000000162200001101879610ARM]]></EST><SINI>A</SINI><ALERTEXI>T</ALERTEXI><AGE>I -, MA</AGE><RAMO>R</RAMO><MARCAREIMPRESION>I</MARCAREIMPRESION><MARCAENDOSABLE>A</MARCAENDOSABLE></REG><REG><PROD> ADR</PROD><POL>IANA    </POL><CERPOL>    </CERPOL><CERANN>JUAN</CERANN><CERSEC> HIPOL</CERSEC><CLIDES><![CDATA[234 RENOVADA]]></CLIDES><TOMA><![CDATA[00PR20001SNHOM100221284]]></TOMA><EST><![CDATA[000000000215260000101879610ARM]]></EST><SINI>A</SINI><ALERTEXI>T</ALERTEXI><AGE>I -, MA</AGE><RAMO>R</RAMO><MARCAREIMPRESION>I</MARCAREIMPRESION><MARCAENDOSABLE>A</MARCAENDOSABLE></REG><REG><PROD> ADR</PROD><POL>IANA    </POL><CERPOL>    </CERPOL><CERANN>JUAN</CERANN><CERSEC> HIPOL</CERSEC><CLIDES><![CDATA[234 ANULADA]]></CLIDES><TOMA><![CDATA[00PR20001 NATD100173250]]></TOMA><EST><![CDATA[000000000000940000101879610ARM]]></EST><SINI>A</SINI><ALERTEXI>T</ALERTEXI><AGE>I -, MA</AGE><RAMO>R</RAMO><MARCAREIMPRESION>I</MARCAREIMPRESION><MARCAENDOSABLE>A</MARCAENDOSABLE></REG><REG><PROD> ADR</PROD><POL>IANA    </POL><CERPOL>    </CERPOL><CERANN>L. N</CERANN><CERSEC>. ALEM</CERSEC><CLIDES><![CDATA[RENOVADA]]></CLIDES><TOMA><![CDATA[00PR81841S ATD100173250]]></TOMA><EST><![CDATA[000000000032230000101879610ARM]]></EST><SINI>A</SINI><ALERTEXI>T</ALERTEXI><AGE>I -, MA</AGE><RAMO>R</RAMO><MARCAREIMPRESION>I</MARCAREIMPRESION><MARCAENDOSABLE>A</MARCAENDOSABLE></REG><REG><PROD> ADR</PROD><POL>IANA    </POL><CERPOL>    </CERPOL><CERANN>L. N</CERANN><CERSEC>. ALEM</CERSEC><CLIDES><![CDATA[RENOVADA 00PR]]></CLIDES><TOMA><![CDATA[81841S ATD10017325000000000006]]></TOMA><EST><![CDATA[7230000101879610ARMATI , MARIA]]></EST><SINI> </SINI><ALERTEXI>A</ALERTEXI><AGE>DR-IANA</AGE><RAMO> </RAMO><MARCAREIMPRESION> </MARCAREIMPRESION><MARCAENDOSABLE> </MARCAENDOSABLE></REG></REGS>
ok anduvo bien eso.

che anda, devuelve 0, y un lindo 
<Response><Estado resultado='true' mensaje='' /><MSGEST>OK</MSGEST><REGS><REG><PROD>0000</PROD><POL>02145290</POL><CERPOL>0011</C etc...


BUeno, pasaron varias cosas.
entre ellas que hice un tester, que prendia el 		MQConnectionConnector.testInstance = true en el setUp y no lo sacaba en el tearDown. Así que no volvía nada.
Ahora lo arreglé, pero pasa algo raro, mando un mensaje y vuelve otro. como en:
FINE: REQ/RESP OK: [[13050001EX009005L     100072343PR  000000000  000000000  000000000AUS110199718],[13090001EX009005L OK  10
0072343PR  000000000  000000000  0000000002013032420130424000000001000001  000000000  000000000PR100072343HSBC BANK ARGENTI
mandé 1305 y volvió 1309?

Y muchos tests fallan, tal vez xq no pueden parsear bien la respuesta????
por qué puede pasar lo de arriba???
FINE: REQ/RESP OK: [[13060001EX009005L     100072343PR  000000000  000000000  000000000AUS110199718],[140000

ah será porque hay mensajes encolados?????
como limpio la colaMQ???
***** PREGUNTAR COMO ES LA CORRELACION!!!!!!! No le estoy poniendo nada creo

Bueno viendo 2 cosas
1) Como limpiar la cola ahora
2) viendo si necesito poner alguna property puntual para encolar.
las constantes del targetClient dicen si manda o no un header RFH2:
http://fmair.blogspot.com.ar/2011/02/roll-your-own-rfh2-header-for-websphere.html
Ver más refs: http://www-01.ibm.com/support/docview.wss?uid=swg27017014
http://www.mqseries.net/phpBB2/viewtopic.php?t=42672
http://searchwindevelopment.techtarget.com/tip/Generating-JMS-RFH2-messages-to-a-MQSeries-queue-from-a-NET-application
http://www.mqseries.net/phpBB2/viewtopic.php?p=297667&sid=87138f788d6035ef5e56fdf5adb7ca8e

Este header, si no lo ponnen desde el AIS, causa problemas? No creo porque mensajes llegan... pero...
3) ver si tengo algún moco de mi lado...
corrí varias veces los tests y se repiten las secuencias:
1010 -> 1104 dif de 4
1305 -> 1309 dif de 4
1306 -> 1400 dif de 4
parecen todos estar desfasados 4...pero en el sentido inverso jeje, o sea mando 1010 y agarro un 1104 que estaba de antes???

resumen, hago el 1 y analizar el 2.
Para el 2 voy a tener que preguntar como hacen...

Corro el cleaner con:



nah lpmqlp, ahora dió mucho mejor!!:
Tests run: 36, Failures: 1, Errors: 15, Skipped: 0

falló el 1308
errores en los que no tengo mensaje de log para probar

FINE: REQ/RESP OK: [[14030001EX009005L     100072343PR  000000000  000000000  000000000],[14030001EX00
FINE: REQ/RESP OK: [[14010001EX009005L     100029438OR  000000000  000000000PR1000294381000000A    00000000000000000000000    ],[14010001EX0
etc, ahí sí coinciden


Bueno entonces el problema es que mando y recibo esperando que sea 1-1, pero si hay algún error, esto no funciona. Esto pasó porque ayer mandé msgs y no tuve respuesta, debe haber quedado algo encolado.

*** BTW esto para también en middelware!!!!

Bueno, como resolverlo.
Algunas referencias:
-send/reply en JMS con ActiveMQ. Tiene ejemplo, sugieren usar camel o algo así de integración que lo resuelva ( un osb tenemos...)
	http://activemq.apache.org/how-should-i-implement-request-response-with-jms.html
-http://docs.oracle.com/cd/E13171_01/alsb/docs25/interopjms/MsgIDPatternforJMS.html#wp1046209
When the Correlation ID pattern is used, the service that is invoked responds to a fixed queue. The response always arrives on the same queue and the client has no control over the queue to which the response arrives. For example, if 10 clients send a message, they all get the response to the same queue.

Therefore, clients must filter the messages in the response queue to select the ones that pertain to them. Filtering criteria are configured in the request message Correlation ID property, and the server is configured to echo this to the response Correlation ID property.

In the case of Message ID pattern, the client's JMSReplyTo property tells the server where the response should be sent. This queue is specific to the client's server and hence responses to different clients will go to different queues. The server sets the JMS Correlation ID of the response to the JMS ID of the request.

Correlation by MessageID is commonly used by many IBM MQ applications as well as JMS applications and is the standard method to correlate request and response.


- Acá uno que lo implementa  a mano. VER
http://codedependents.com/2010/03/04/synchronous-request-response-with-activemq-and-spring/



Ideas:
	- Preguntar a jorge como manejan la correlatividad. 
		Qué pongo en JMSReplyTo. Creo que nada porque ellos responden a otra cola
		Que hacen ellos con el CorelationID. ¿Copian el que les mando, o ponen el MessageID?
			Creo que el messageID según lo que vimos en proyecto MW (https://sites.google.com/a/snoopconsulting.com/qbe-lba-mw/especificacion/service1---ironmountain-para-ais) y lo que dice la ref de oracle
		*** Ver en más detalle la página del sitio del prj anterior que tiene data ***
	- Hacer un converter que loguee los mensajes para ver que tienen
	- Implementar algo casero con lo que tengo. Ver ref arriba. Puedo hacer una berreta con un filtro en el receive, creo
	- Más adelante implementar algo en OSB, si me ayuda en algo



